<?xml version="1.0" encoding="UTF-8"?>
<svg width="82px" height="82px" viewBox="0 0 82 82" version="1.1" xmlns="http://www.w3.org/2000/svg" xmlns:xlink="http://www.w3.org/1999/xlink">
    <!-- Generator: Sketch 64 (93537) - https://sketch.com -->
    <title>hero-background-shape-1</title>
    <desc>Created with Sketch.</desc>
    <g id="Page-1" stroke="none" stroke-width="1" fill="none" fill-rule="evenodd">
        <path d="M78,4.0005272 L40.3554897,4.00548845 C30.2835435,4.17717482 21.1922596,8.37402515 14.6200749,15.0558252 C8.05196439,21.733483 4,30.8935614 4,41 L4,78 L60.4473689,78 C65.2943941,78 69.6825519,76.0353548 72.8589534,72.8589534 C76.0353548,69.6825519 78,65.2943941 78,60.4473689 L78,4.0005272 Z" id="hero-background-shape-1" stroke="#FFFFFF" stroke-width="8" fill="#979CFF"></path>
    </g>
</svg>